{
    "rulesDirectory": [
      "node_modules/rxjs-tslint"
    ],
    "rules": {
      "enable": true,
      "triple-equals": true,
      "rxjs-collapse-imports": true,
      "rxjs-pipeable-operators-only": true,
      "rxjs-no-static-observable-methods": true,
      "rxjs-proper-imports": true,
      "deprecation": true,
      "encoding": true,
      "no-trailing-whitespace": [true, "ignore-comments"],
      "ordered-imports": [
        true,
        {
          "import-sources-order": "lowercase-last",
          "named-imports-order": "lowercase-first"
        }
      ]
    }
  }